<svg width="75" height="150" viewBox="0 0 75 150" fill="none" xmlns="http://www.w3.org/2000/svg">
<path d="M38.1872 0C33.6458 0 29.9258 3.71484 29.9258 8.24999C29.9258 12.791 33.6458 16.5 38.1872 16.5C42.7345 16.5 46.4487 12.791 46.4487 8.24999C46.4487 3.71484 42.7345 0 38.1872 0ZM38.1872 3C41.1151 3 43.4445 5.33788 43.4445 8.24999C43.4445 11.168 41.1151 13.5 38.1872 13.5C35.2711 13.5 32.9299 11.168 32.9299 8.24999C32.9299 5.33788 35.2711 3 38.1872 3ZM26.9216 13.8281C26.9216 13.8281 17.3224 14.3203 16.2662 14.3906C15.2042 14.4609 14.1129 14.8066 13.356 15.5625C13.0861 15.832 12.4993 16.5234 11.5253 17.5781C10.5513 18.6328 9.28391 19.9922 8.05174 21.3281C5.58739 24 3.16998 26.5781 3.16998 26.5781H3.21692V26.625C2.10209 27.8379 1.72071 29.3261 2.04342 30.4687C2.372 31.623 3.0585 32.3437 3.92102 32.7656C4.60165 33.0996 5.55805 33.3867 6.64354 33.2343C7.08947 33.1699 7.54713 33.0234 8.0048 32.8125L10.5396 34.0781C9.78265 35.666 9.1959 37.4121 8.9436 38.25C8.76757 38.83 6.71982 45.791 4.62512 52.8749C3.5807 56.414 2.51282 59.9531 1.71484 62.6718C0.916858 65.3905 0.382915 67.1308 0.259698 67.5937C0.101275 68.2089 -0.151027 69.4335 0.118878 70.8749C0.388784 72.3163 1.43907 74.0214 3.45162 74.7187C4.54297 75.0995 5.62259 75.0585 6.50272 74.7187C7.38284 74.3788 8.03414 73.746 8.4742 73.1718C9.28391 72.1112 9.46581 71.1444 9.50688 70.9687H9.55382L9.60076 70.7812L17.3459 50.4374L23.1195 55.7812L24.9032 69.8905V70.0312H24.9501C24.956 70.1601 24.9619 71.1327 25.4665 72.2812C26.0004 73.4999 27.3675 74.9999 29.4564 74.9999C30.3541 74.9999 31.1521 74.8476 31.8503 74.4843C32.5486 74.121 33.1001 73.5175 33.3993 72.8905C33.9978 71.6308 33.9157 70.3944 33.9157 69.1874C33.9157 66.8144 33.4463 56.9296 33.3993 56.0156C33.3407 54.8613 33.059 53.7773 32.5075 52.8281C32.5075 52.8105 32.5075 52.7988 32.5075 52.7812C31.7975 51.5624 27.5377 43.8691 26.9686 42.8437L27.2033 42.3749L35.5116 46.5468C35.8813 47.7011 36.3976 48.7382 37.2015 49.5468C38.0699 50.4199 39.437 50.9062 40.7689 50.6249C41.3263 50.5078 41.8896 50.2792 42.3649 49.9687L50.3447 53.9062C49.7638 54.8027 49.2005 55.5878 48.7018 56.1093C47.9918 56.8534 47.4872 57.0937 47.1997 57.0937C46.3078 57.0937 45.4218 57.164 44.5711 57.5156C43.7203 57.8671 42.934 58.5527 42.5057 59.4843C41.7312 61.1659 36.0749 72.8437 36.0749 72.8437C35.8461 73.3124 35.8754 73.8632 36.1571 74.3026C36.4328 74.7362 36.914 75.0058 37.4362 74.9999H73.4861C74.0083 75.0058 74.4894 74.7362 74.7652 74.3026C75.0469 73.8632 75.0762 73.3124 74.8474 72.8437C74.8474 72.8437 72.3537 67.5585 69.7309 61.9687C67.1081 56.3788 64.2917 50.414 63.8634 49.4062C63.2356 47.9413 62.5432 46.8222 61.6572 46.0781C60.7712 45.3339 59.6799 44.9999 58.7 44.9999C57.9314 44.9999 56.5642 45.2109 55.4611 46.3124C54.5165 47.2558 53.4955 48.791 51.9406 51.3749L43.867 47.2968C43.8904 46.7167 43.7789 46.1367 43.6323 45.5156C43.4034 44.5488 42.4118 39.0996 41.52 34.125C40.6281 29.1504 39.7832 24.4687 39.7832 24.4687C39.613 23.5371 39.1554 22.8164 38.7036 22.0781C38.7036 22.0605 38.7036 22.0488 38.7036 22.0312C38.6801 21.7617 38.5803 21.5039 38.4219 21.2812C38.4219 21.2812 38.3339 21.1933 38.328 21.1875C38.2224 21.0468 36.8494 19.2011 33.4463 16.875C30.1311 14.6074 28.6525 13.9277 27.2971 13.875C27.2443 13.875 27.1622 13.8281 27.1094 13.8281C27.0624 13.8281 27.0155 13.8281 26.9686 13.8281C26.951 13.8281 26.9392 13.8281 26.9216 13.8281ZM26.8747 16.8281C26.8923 16.8281 26.904 16.8281 26.9216 16.8281C26.9979 16.8515 27.0742 16.8633 27.1563 16.875H27.2033C27.5494 16.8867 28.4941 17.1269 31.7564 19.3594C34.9249 21.5273 35.8402 22.8574 35.8872 22.9218C35.8872 22.9394 35.8872 22.9511 35.8872 22.9687C35.9282 23.0332 35.9752 23.0976 36.028 23.1562C36.3566 23.5312 36.6793 24.1582 36.826 24.9843C36.826 24.9843 37.6709 29.6601 38.5627 34.6406C39.4546 39.621 40.3875 44.7597 40.722 46.1718C40.8511 46.705 40.8745 47.0097 40.8628 47.2031C40.8628 47.2265 40.8628 47.2324 40.8628 47.2499C40.7748 47.332 40.6926 47.4257 40.6281 47.5312C40.6281 47.5488 40.6281 47.5605 40.6281 47.5781C40.5342 47.6132 40.4286 47.6132 40.1587 47.6718C39.7245 47.7656 39.6306 47.7539 39.3138 47.4374C38.9969 47.121 38.6155 46.4003 38.328 45.4218C38.3163 45.3749 38.2518 45.1054 38.2342 45.0468C38.2224 44.9999 38.2048 44.9531 38.1872 44.9062C37.6239 42.8906 35.6055 34.7226 34.479 30.1875C34.3381 29.6015 33.8629 29.1562 33.2703 29.0566C32.6776 28.9511 32.085 29.2148 31.7564 29.7187L26.0298 38.4375L14.905 32.8593C16.1548 31.1074 19.2469 26.7363 21.2888 23.5781C21.6115 23.1093 21.635 22.4941 21.3592 22.0019C21.0776 21.5039 20.5436 21.2051 19.9745 21.2343L16.4071 21.4218C16.0374 21.4394 15.6854 21.5859 15.4213 21.8437L7.91092 29.2968L7.86398 29.3437C7.69969 29.4961 7.54127 29.6132 7.39458 29.7187C7.37698 29.7304 7.36524 29.7539 7.34764 29.7656C7.3183 29.7773 7.2831 29.7949 7.25376 29.8125C7.17161 29.8535 7.09534 29.9004 7.01906 29.9531C6.96038 29.9882 6.93105 30.0644 6.87824 30.0937C6.6318 30.2168 6.38537 30.2578 6.22108 30.2812C5.84556 30.3339 5.56392 30.2519 5.23534 30.0937C5.35269 30.1523 5.01237 29.8828 4.9537 29.6718C4.89502 29.4609 4.78354 29.2734 5.37616 28.6406C5.39376 28.623 5.4055 28.6113 5.4231 28.5937C5.4231 28.5937 7.79357 26.0156 10.2579 23.3437C11.4901 22.0078 12.7575 20.6426 13.7315 19.5937C14.7055 18.5449 15.4683 17.7187 15.4683 17.7187C15.7499 17.4375 15.6971 17.4375 16.454 17.3906C17.205 17.3437 26.5402 16.8457 26.8747 16.8281ZM16.9703 24.5156C14.8639 27.5918 12.7809 30.5742 12.1355 31.5L10.6804 30.75L16.9703 24.5156ZM32.4136 34.2187C33.1353 37.1484 33.9039 40.1484 34.5259 42.6562L28.7523 39.7968L32.4136 34.2187ZM13.309 35.4375L24.5277 41.0625L23.9175 42.2812C23.7121 42.7148 23.7297 43.2187 23.9644 43.6406C23.9644 43.6406 28.9928 52.8046 29.8788 54.3281C30.0255 54.58 30.3658 55.623 30.3952 56.2031C30.4363 57.0175 30.9115 67.248 30.9115 69.1874C30.9115 70.3944 30.8118 71.3378 30.6768 71.6249C30.6064 71.7714 30.6181 71.748 30.4891 71.8124C30.36 71.8769 30.0255 71.9999 29.4564 71.9999C28.6115 71.9999 28.453 71.6659 28.189 71.0624C27.925 70.4589 27.9074 69.7968 27.9074 69.7968C27.9074 69.7499 27.9074 69.703 27.9074 69.6562L26.0767 54.8906C26.0356 54.5331 25.8713 54.1992 25.6073 53.9531L17.7214 46.6874C17.3576 46.3593 16.853 46.2363 16.3777 46.3476C15.9025 46.4589 15.5093 46.7988 15.3274 47.2499L6.73742 69.9374C6.71982 69.9843 6.70221 70.0312 6.69048 70.078C6.69048 70.078 6.49685 70.8456 6.08026 71.3905C5.8749 71.6659 5.6402 71.8241 5.4231 71.9062C5.206 71.9882 4.9713 72.0409 4.43736 71.8593C3.38708 71.496 3.21105 71.0214 3.0761 70.3124C2.94115 69.6034 3.07023 68.7187 3.16998 68.3437C3.17585 68.3144 3.7802 66.2343 4.57818 63.5155C5.37616 60.7968 6.44404 57.2577 7.48846 53.7187C9.58316 46.6406 11.7013 39.4511 11.8069 39.0937C11.983 38.5136 12.6577 36.8086 13.309 35.4375ZM58.1367 47.9999C58.2423 47.9648 58.3421 47.9999 58.7 47.9999C59.0345 47.9999 59.2868 48.041 59.6857 48.3749C60.0847 48.7089 60.5952 49.4003 61.0939 50.5781C61.6572 51.9023 64.3856 57.6445 67.0084 63.2343C69.1089 67.7167 70.3705 70.4706 71.0922 71.9999H39.8301C41.1092 69.3515 44.4948 62.3378 45.2282 60.7499C45.3514 60.4804 45.4571 60.3984 45.7446 60.2812C46.0321 60.164 46.5249 60.0937 47.1997 60.0937C48.6724 60.0937 49.8577 59.2148 50.861 58.1718C51.7294 57.2636 52.5157 56.0917 53.3019 54.7968C53.3195 54.7792 53.3312 54.7675 53.3488 54.7499C53.3606 54.7324 53.384 54.7206 53.3958 54.7031C53.9004 54.4394 54.2055 53.912 54.1938 53.3437C55.8719 50.5488 56.9691 49.0722 57.5734 48.4687C57.9079 48.1347 58.0311 48.0351 58.1367 47.9999Z" fill="#4A5464"/>
<path d="M38.1872 75C33.6458 75 29.9258 78.7148 29.9258 83.25C29.9258 87.791 33.6458 91.5 38.1872 91.5C42.7345 91.5 46.4487 87.791 46.4487 83.25C46.4487 78.7148 42.7345 75 38.1872 75ZM38.1872 78C41.1151 78 43.4445 80.3379 43.4445 83.25C43.4445 86.168 41.1151 88.5 38.1872 88.5C35.2711 88.5 32.9299 86.168 32.9299 83.25C32.9299 80.3379 35.2711 78 38.1872 78ZM26.9216 88.8281C26.9216 88.8281 17.3224 89.3203 16.2662 89.3906C15.2042 89.4609 14.1129 89.8066 13.356 90.5625C13.0861 90.832 12.4993 91.5234 11.5253 92.5781C10.5513 93.6328 9.28391 94.9922 8.05174 96.3281C5.58739 99 3.16998 101.578 3.16998 101.578H3.21692V101.625C2.10209 102.838 1.72071 104.326 2.04342 105.469C2.372 106.623 3.0585 107.344 3.92102 107.766C4.60165 108.1 5.55805 108.387 6.64354 108.234C7.08947 108.17 7.54713 108.023 8.0048 107.812L10.5396 109.078C9.78265 110.666 9.1959 112.412 8.9436 113.25C8.76757 113.83 6.71982 120.791 4.62512 127.875C3.5807 131.414 2.51282 134.953 1.71484 137.672C0.916858 140.391 0.382915 142.131 0.259698 142.594C0.101275 143.209 -0.151027 144.434 0.118878 145.875C0.388784 147.316 1.43907 149.021 3.45162 149.719C4.54297 150.1 5.62259 150.059 6.50272 149.719C7.38284 149.379 8.03414 148.746 8.4742 148.172C9.28391 147.111 9.46581 146.144 9.50688 145.969H9.55382L9.60076 145.781L17.3459 125.437L23.1195 130.781L24.9032 144.891V145.031H24.9501C24.956 145.16 24.9619 146.133 25.4665 147.281C26.0004 148.5 27.3675 150 29.4564 150C30.3541 150 31.1521 149.848 31.8503 149.484C32.5486 149.121 33.1001 148.517 33.3993 147.891C33.9978 146.631 33.9157 145.394 33.9157 144.187C33.9157 141.814 33.4463 131.93 33.3993 131.016C33.3407 129.861 33.059 128.777 32.5075 127.828C32.5075 127.81 32.5075 127.799 32.5075 127.781C31.7975 126.562 27.5377 118.869 26.9686 117.844L27.2033 117.375L35.5116 121.547C35.8813 122.701 36.3976 123.738 37.2015 124.547C38.0699 125.42 39.437 125.906 40.7689 125.625C41.3263 125.508 41.8896 125.279 42.3649 124.969L50.3447 128.906C49.7638 129.803 49.2005 130.588 48.7018 131.109C47.9918 131.853 47.4872 132.094 47.1997 132.094C46.3078 132.094 45.4218 132.164 44.5711 132.516C43.7203 132.867 42.934 133.553 42.5057 134.484C41.7312 136.166 36.0749 147.844 36.0749 147.844C35.8461 148.312 35.8754 148.863 36.1571 149.303C36.4328 149.736 36.914 150.006 37.4362 150H73.4861C74.0083 150.006 74.4894 149.736 74.7652 149.303C75.0469 148.863 75.0762 148.312 74.8474 147.844C74.8474 147.844 72.3537 142.559 69.7309 136.969C67.1081 131.379 64.2917 125.414 63.8634 124.406C63.2356 122.941 62.5432 121.822 61.6572 121.078C60.7712 120.334 59.6799 120 58.7 120C57.9314 120 56.5642 120.211 55.4611 121.312C54.5165 122.256 53.4955 123.791 51.9406 126.375L43.867 122.297C43.8904 121.717 43.7789 121.137 43.6323 120.516C43.4034 119.549 42.4118 114.1 41.52 109.125C40.6281 104.15 39.7832 99.4687 39.7832 99.4687C39.613 98.5371 39.1554 97.8164 38.7036 97.0781C38.7036 97.0605 38.7036 97.0488 38.7036 97.0312C38.6801 96.7617 38.5803 96.5039 38.4219 96.2812C38.4219 96.2812 38.3339 96.1933 38.328 96.1875C38.2224 96.0469 36.8494 94.2011 33.4463 91.875C30.1311 89.6074 28.6525 88.9277 27.2971 88.875C27.2443 88.875 27.1622 88.8281 27.1094 88.8281C27.0624 88.8281 27.0155 88.8281 26.9686 88.8281C26.951 88.8281 26.9392 88.8281 26.9216 88.8281ZM26.8747 91.8281C26.8923 91.8281 26.904 91.8281 26.9216 91.8281C26.9979 91.8515 27.0742 91.8633 27.1563 91.875H27.2033C27.5494 91.8867 28.4941 92.1269 31.7564 94.3594C34.9249 96.5273 35.8402 97.8574 35.8872 97.9218C35.8872 97.9394 35.8872 97.9511 35.8872 97.9687C35.9282 98.0332 35.9752 98.0976 36.028 98.1562C36.3566 98.5312 36.6793 99.1582 36.826 99.9843C36.826 99.9843 37.6709 104.66 38.5627 109.641C39.4546 114.621 40.3875 119.76 40.722 121.172C40.8511 121.705 40.8745 122.01 40.8628 122.203C40.8628 122.227 40.8628 122.232 40.8628 122.25C40.7748 122.332 40.6926 122.426 40.6281 122.531C40.6281 122.549 40.6281 122.56 40.6281 122.578C40.5342 122.613 40.4286 122.613 40.1587 122.672C39.7245 122.766 39.6306 122.754 39.3138 122.437C38.9969 122.121 38.6155 121.4 38.328 120.422C38.3163 120.375 38.2518 120.105 38.2342 120.047C38.2224 120 38.2048 119.953 38.1872 119.906C37.6239 117.891 35.6055 109.723 34.479 105.187C34.3381 104.602 33.8629 104.156 33.2703 104.057C32.6776 103.951 32.085 104.215 31.7564 104.719L26.0298 113.437L14.905 107.859C16.1548 106.107 19.2469 101.736 21.2888 98.5781C21.6115 98.1093 21.635 97.4941 21.3592 97.0019C21.0776 96.5039 20.5436 96.2051 19.9745 96.2344L16.4071 96.4219C16.0374 96.4394 15.6854 96.5859 15.4213 96.8437L7.91092 104.297L7.86398 104.344C7.69969 104.496 7.54127 104.613 7.39458 104.719C7.37698 104.73 7.36524 104.754 7.34764 104.766C7.3183 104.777 7.2831 104.795 7.25376 104.812C7.17161 104.853 7.09534 104.9 7.01906 104.953C6.96038 104.988 6.93105 105.064 6.87824 105.094C6.6318 105.217 6.38537 105.258 6.22108 105.281C5.84556 105.334 5.56392 105.252 5.23534 105.094C5.35269 105.152 5.01237 104.883 4.9537 104.672C4.89502 104.461 4.78354 104.273 5.37616 103.641C5.39376 103.623 5.4055 103.611 5.4231 103.594C5.4231 103.594 7.79357 101.016 10.2579 98.3437C11.4901 97.0078 12.7575 95.6426 13.7315 94.5937C14.7055 93.5449 15.4683 92.7187 15.4683 92.7187C15.7499 92.4375 15.6971 92.4375 16.454 92.3906C17.205 92.3437 26.5402 91.8457 26.8747 91.8281ZM16.9703 99.5156C14.8639 102.592 12.7809 105.574 12.1355 106.5L10.6804 105.75L16.9703 99.5156ZM32.4136 109.219C33.1353 112.148 33.9039 115.148 34.5259 117.656L28.7523 114.797L32.4136 109.219ZM13.309 110.437L24.5277 116.062L23.9175 117.281C23.7121 117.715 23.7297 118.219 23.9644 118.641C23.9644 118.641 28.9928 127.805 29.8788 129.328C30.0255 129.58 30.3658 130.623 30.3952 131.203C30.4363 132.018 30.9115 142.248 30.9115 144.187C30.9115 145.394 30.8118 146.338 30.6768 146.625C30.6064 146.771 30.6181 146.748 30.4891 146.812C30.36 146.877 30.0255 147 29.4564 147C28.6115 147 28.453 146.666 28.189 146.062C27.925 145.459 27.9074 144.797 27.9074 144.797C27.9074 144.75 27.9074 144.703 27.9074 144.656L26.0767 129.891C26.0356 129.533 25.8713 129.199 25.6073 128.953L17.7214 121.687C17.3576 121.359 16.853 121.236 16.3777 121.348C15.9025 121.459 15.5093 121.799 15.3274 122.25L6.73742 144.937C6.71982 144.984 6.70221 145.031 6.69048 145.078C6.69048 145.078 6.49685 145.846 6.08026 146.391C5.8749 146.666 5.6402 146.824 5.4231 146.906C5.206 146.988 4.9713 147.041 4.43736 146.859C3.38708 146.496 3.21105 146.021 3.0761 145.312C2.94115 144.603 3.07023 143.719 3.16998 143.344C3.17585 143.314 3.7802 141.234 4.57818 138.516C5.37616 135.797 6.44404 132.258 7.48846 128.719C9.58316 121.641 11.7013 114.451 11.8069 114.094C11.983 113.514 12.6577 111.809 13.309 110.437ZM58.1367 123C58.2423 122.965 58.3421 123 58.7 123C59.0345 123 59.2868 123.041 59.6857 123.375C60.0847 123.709 60.5952 124.4 61.0939 125.578C61.6572 126.902 64.3856 132.644 67.0084 138.234C69.1089 142.717 70.3705 145.471 71.0922 147H39.8301C41.1092 144.351 44.4948 137.338 45.2282 135.75C45.3514 135.48 45.4571 135.398 45.7446 135.281C46.0321 135.164 46.5249 135.094 47.1997 135.094C48.6724 135.094 49.8577 134.215 50.861 133.172C51.7294 132.264 52.5157 131.092 53.3019 129.797C53.3195 129.779 53.3312 129.768 53.3488 129.75C53.3606 129.732 53.384 129.721 53.3958 129.703C53.9004 129.439 54.2055 128.912 54.1938 128.344C55.8719 125.549 56.9691 124.072 57.5734 123.469C57.9079 123.135 58.0311 123.035 58.1367 123Z" fill="#40D9FF"/>
</svg>
