<svg width="75" height="150" viewBox="0 0 75 150" fill="none" xmlns="http://www.w3.org/2000/svg">
<path d="M67.4342 0C65.5029 0 63.6214 0.791113 62.1511 2.24252H62.1013L59.8585 4.43522L49.8904 14.402H1.5949C0.710228 14.402 0 15.1184 0 15.9967V73.4053C0 74.2836 0.710228 75 1.5949 75H59.0112C59.8958 75 60.6061 74.2836 60.6061 73.4053V25.1163L70.6739 15.0498C70.7362 14.9875 70.8172 14.9066 70.9231 14.8007C71.1287 14.5951 71.3903 14.3335 71.6707 14.0532C72.2251 13.4988 72.7672 12.907 72.7672 12.907C75.714 9.96055 75.7576 5.18272 72.817 2.24252V2.19269C71.3405 0.722591 69.378 0 67.4342 0ZM67.4342 3.18937C68.5494 3.18937 69.6584 3.61919 70.5243 4.48505C72.2376 6.19809 72.2189 8.88912 70.5243 10.6146L64.394 4.48505C65.2537 3.6441 66.3315 3.18937 67.4342 3.18937ZM62.1013 6.67774L68.3314 12.907L32.2967 48.887L26.1164 42.7076L62.1013 6.67774ZM23.8736 45L30.004 51.1296L22.3286 52.6744L23.8736 45Z" fill="#4A5464"/>
<path d="M67.4342 75C65.5029 75 63.6214 75.7911 62.1511 77.2425H62.1013L59.8585 79.4352L49.8904 89.402H1.5949C0.710228 89.402 0 90.1184 0 90.9967V148.405C0 149.284 0.710228 150 1.5949 150H59.0112C59.8959 150 60.6061 149.284 60.6061 148.405V100.116L70.6739 90.0498C70.7362 89.9875 70.8172 89.9066 70.9231 89.8007C71.1287 89.5951 71.3903 89.3335 71.6707 89.0532C72.2251 88.4988 72.7672 87.907 72.7672 87.907C75.714 84.9605 75.7576 80.1827 72.817 77.2425V77.1927C71.3405 75.7226 69.378 75 67.4342 75ZM67.4342 78.1894C68.5494 78.1894 69.6584 78.6192 70.5243 79.485C72.2376 81.1981 72.2189 83.8891 70.5243 85.6146L64.394 79.485C65.2537 78.6441 66.3315 78.1894 67.4342 78.1894ZM62.1013 81.6777L68.3314 87.907L32.2967 123.887L26.1164 117.708L62.1013 81.6777ZM23.8736 120L30.004 126.13L22.3286 127.674L23.8736 120Z" fill="#40D9FF"/>
</svg>
