<svg width="50" height="75" viewBox="0 0 50 75" fill="none" xmlns="http://www.w3.org/2000/svg">
<path d="M25 0C11.2122 0 0 11.7006 0 26.0892C0 36.4331 6.03638 48.3694 11.9629 57.8854C17.8894 67.4013 23.8281 74.4459 23.8281 74.4459C24.1272 74.7962 24.5544 75 25 75C25.4456 75 25.8728 74.7962 26.1719 74.4459C26.1719 74.4459 32.1106 67.3885 38.0371 57.8854C43.9636 48.3822 50 36.4841 50 26.0892C50 11.7006 38.7878 0 25 0ZM25 3.26115C37.0972 3.26115 46.875 13.465 46.875 26.0892C46.875 35.121 41.1926 46.8662 35.4004 56.1529C30.542 63.9363 26.4404 69.0637 25 70.828C23.5657 69.0637 19.4641 63.9108 14.5996 56.1019C8.80737 46.8025 3.125 35.0573 3.125 26.0892C3.125 13.465 12.9028 3.26115 25 3.26115ZM25 16.051L24.2188 16.5605L12.5 23.8981L14.0625 26.6497V39.1338H35.9375V26.6497L37.5 23.8981L25.7812 16.5605L25 16.051ZM25 19.8217L32.8125 24.7134V35.8726H28.125V27.7197H21.875V35.8726H17.1875V24.7134L25 19.8217Z" fill="#40D9FF"/>
</svg>
